++========================================
||
||   Package:  ./psi/pkg64/14.0/psi-lang-0.15-x86_64-1alien.tgz
||
++========================================
drwxr-xr-x root/root         0 2013-10-15 17:21 ./
drwxr-xr-x root/root         0 2013-10-15 17:21 usr/
drwxr-xr-x root/root         0 2013-10-15 17:21 usr/share/
drwxr-xr-x root/root         0 2013-10-15 17:21 usr/share/psi/
-rw-r--r-- root/root    261756 2013-10-15 17:21 usr/share/psi/psi_de.qm
-rw-r--r-- root/root    191907 2013-10-15 17:21 usr/share/psi/psi_vi.qm
-rw-r--r-- root/root    242386 2013-10-15 17:21 usr/share/psi/psi_cs.qm
-rw-r--r-- root/root    244639 2013-10-15 17:21 usr/share/psi/psi_mk.qm
-rw-r--r-- root/root    254917 2013-10-15 17:21 usr/share/psi/psi_pt_BR.qm
-rw-r--r-- root/root    195566 2013-10-15 17:21 usr/share/psi/psi_ja.qm
-rw-r--r-- root/root     57837 2013-10-15 17:21 usr/share/psi/psi_zh_CN.qm
-rw-r--r-- root/root    254756 2013-10-15 17:21 usr/share/psi/psi_es.qm
-rw-r--r-- root/root    258292 2013-10-15 17:21 usr/share/psi/psi_pl.qm
-rw-r--r-- root/root    241491 2013-10-15 17:21 usr/share/psi/psi_ru.qm
-rw-r--r-- root/root    220742 2013-10-15 17:21 usr/share/psi/psi_uk.qm
-rw-r--r-- root/root    308210 2013-10-15 17:21 usr/share/psi/psi_es_ES.qm
-rw-r--r-- root/root    213012 2013-10-15 17:21 usr/share/psi/psi_eo.qm
-rw-r--r-- root/root    248478 2013-10-15 17:21 usr/share/psi/psi_sl.qm
-rw-r--r-- root/root    257779 2013-10-15 17:21 usr/share/psi/psi_it.qm
-rw-r--r-- root/root    255759 2013-10-15 17:21 usr/share/psi/psi_be.qm
-rw-r--r-- root/root    269774 2013-10-15 17:21 usr/share/psi/psi_fr.qm
-rw-r--r-- root/root    244903 2013-10-15 17:21 usr/share/psi/psi_ur_PK.qm
-rw-r--r-- root/root    246214 2013-10-15 17:21 usr/share/psi/psi_sv.qm
-rw-r--r-- root/root    171993 2013-10-15 17:21 usr/share/psi/psi_zh_TW.qm
drwxr-xr-x root/root         0 2013-10-15 17:21 install/
-rw-r--r-- root/root       838 2013-10-15 17:21 install/slack-desc


